%YAML 1.1
%TAG !u! tag:unity3d.com,2011:
--- !u!114 &11400000
MonoBehaviour:
  m_ObjectHideFlags: 0
  m_CorrespondingSourceObject: {fileID: 0}
  m_PrefabInstance: {fileID: 0}
  m_PrefabAsset: {fileID: 0}
  m_GameObject: {fileID: 0}
  m_Enabled: 1
  m_EditorHideFlags: 0
  m_Script: {fileID: 11500000, guid: 4ab75e7b9841fe844bc8e34bc4f3b09b, type: 3}
  m_Name: B_End_05
  m_EditorClassIdentifier: 
  dialogues:
  - overloadName: 0
    overloadedName: 
    speaker: {fileID: 11400000, guid: 64921367cd6c4aa4c94dc279b5f03f30, type: 2}
    emotionID: 0
    mirror: 0
    leftSide: 0
    overrideListener: 0
    listenerOverridden: {fileID: 0}
    listenerEmotionID: 0
    listenerMirror: 0
    events: []
    text: "When I was young I didn't want to become the \xB0Harvester of Souls\xB0."
    emphasis: 
    size: 
    effect: 
    speed: 
    ignoreFormatting: 00000000000000000000000000000000000000000000000000000000000000000000000000000000000000000000000000000000000000000000000000000000
    triggerEvent: 
  - overloadName: 0
    overloadedName: 
    speaker: {fileID: 11400000, guid: 64921367cd6c4aa4c94dc279b5f03f30, type: 2}
    emotionID: 0
    mirror: 0
    leftSide: 0
    overrideListener: 0
    listenerOverridden: {fileID: 0}
    listenerEmotionID: 0
    listenerMirror: 0
    events: []
    text: Actually I wanted to own a tea shop.
    emphasis: 
    size: 
    effect: 
    speed: 
    ignoreFormatting: 000000000000000000000000000000000000000000000000000000000000000000000000
    triggerEvent: 
  - overloadName: 0
    overloadedName: 
    speaker: {fileID: 11400000, guid: 91be9b889f5e3454a9ef5ac5f947f5ae, type: 2}
    emotionID: 0
    mirror: 0
    leftSide: 1
    overrideListener: 0
    listenerOverridden: {fileID: 0}
    listenerEmotionID: 0
    listenerMirror: 0
    events: []
    text: You enjoy tea\?\?
    emphasis: 
    size: 
    effect: 
    speed: 
    ignoreFormatting: 000000000000000000000000000000
    triggerEvent: 
  - overloadName: 0
    overloadedName: 
    speaker: {fileID: 11400000, guid: 64921367cd6c4aa4c94dc279b5f03f30, type: 2}
    emotionID: 0
    mirror: 0
    leftSide: 0
    overrideListener: 0
    listenerOverridden: {fileID: 0}
    listenerEmotionID: 0
    listenerMirror: 0
    events: []
    text: Yeah! I like to drink some tea when watching anime.
    emphasis: 
    size: 
    effect: 
    speed: 
    ignoreFormatting: 000000000000000000000000000000000000000000000000000000000000000000000000000000000000000000000000000000
    triggerEvent: 
  - overloadName: 0
    overloadedName: 
    speaker: {fileID: 11400000, guid: 91be9b889f5e3454a9ef5ac5f947f5ae, type: 2}
    emotionID: 0
    mirror: 0
    leftSide: 1
    overrideListener: 0
    listenerOverridden: {fileID: 0}
    listenerEmotionID: 0
    listenerMirror: 0
    events: []
    text: _*>omg<* THEY WATCH ANIME_
    emphasis: 
    size: 
    effect: 
    speed: 
    ignoreFormatting: 0000000000000000000000000000000000000000
    triggerEvent: 
