%YAML 1.1
%TAG !u! tag:unity3d.com,2011:
--- !u!1045 &1
EditorBuildSettings:
  m_ObjectHideFlags: 0
  serializedVersion: 2
  m_Scenes:
  - enabled: 1
    path: Assets/Scenes/Levels/Tuto_01.unity
    guid: 4dc4a59e4a6914144a6cdc22c0f9ea15
  - enabled: 1
    path: Assets/Scenes/Levels/Tuto_02.unity
    guid: f4cab8559d33c1c479ac0a0f2114d891
  - enabled: 1
    path: Assets/Scenes/Levels/Tuto_03.unity
    guid: f9856c0441d23ac498b107cf2741df3f
  - enabled: 1
    path: Assets/Scenes/Levels/A_01.unity
    guid: f38e274665c99a149b75cb43de4bc1e3
  - enabled: 1
    path: Assets/Scenes/Levels/A_02.unity
    guid: db101472c9ed36044b3b29af630e133a
  - enabled: 1
    path: Assets/Scenes/Levels/A_03.unity
    guid: 9be61001bcb654948a1c468170f2121c
  - enabled: 1
    path: Assets/Scenes/Levels/B_01.unity
    guid: 4968e08da808c71449f6b1a670228dcb
  - enabled: 1
    path: Assets/Scenes/Levels/B_02.unity
    guid: b0e10a368453eb04980fa654ddd0932e
  - enabled: 1
    path: Assets/Scenes/Levels/B_03.unity
    guid: 6dc25e3dcdb7e704dad24964b134d262
  - enabled: 1
    path: Assets/Scenes/Levels/B_04.unity
    guid: d66fc0a08c262f94982987c3abc30e10
  - enabled: 1
    path: Assets/Scenes/Levels/B_05.unity
    guid: 05935c432ba105a4fb301533c58fdcd9
  - enabled: 1
    path: Assets/Scenes/Levels/B_06.unity
    guid: 16c38634e8dacb94ab4005bde2051cd3
  - enabled: 1
    path: Assets/Scenes/Levels/B_07.unity
    guid: 4a9fb0b0f6efbf44c80d29a3771e4f37
  - enabled: 1
    path: Assets/Scenes/Levels/B_08.unity
    guid: 105e482c5f7693345b169960b96ba55c
  - enabled: 1
    path: Assets/Scenes/Levels/EndLevel.unity
    guid: 425bf0a383881fb4fa36875122f32e7b
  m_configObjects: {}
